{"space_templates":[{"space_template_sid":"tree-house-2321","selectable_by_non_admins":false,"activity_name":"Tree House Sound","selectable_for_experiences":false,"description":"Android 3.2 mb Mac 3.1 mb PC 3.0 mb","desktop_capacity":null,"mobile_capacity":null,"disabled_for_public_activities":false,"admin":false,"created_at":"2020-10-27T09:18:16.956-07:00","updated_at":"2021-01-14T10:29:28.313-08:00","tutorial":null,"is_featured":null,"space_template_id":"1592899671557144869","recording_id":"","asset_bundle_scenes":[{"aasm_state":"active","name":"Autogenerated for SpaceTemplate 1592899671557144869","created_at":"2020-10-27T09:18:17.009-07:00","updated_at":"2021-01-14T10:29:28.308-08:00","asset_bundle_scene_id":"1592899671817191720","user_id":"1568727108304241551","asset_bundles":[{"game_engine":"unity","game_engine_version":20194,"platform":"mac","url":"https://cdn-content-ingress.altvr.com/environments/c8/07/c80786142a9fdabad0e6f1566e457be3-treehousezipzip-mac","description":null,"aasm_state":"active","created_at":"2020-11-20T21:24:58.610-08:00","updated_at":"2021-01-14T10:29:28.291-08:00","layout":null,"crc":"2518129209","client_cache_key":"c80786142a9fdabad0e6f1566e457be3","name":"treehousezipzip","stereo_render_mode":null,"asset_bundle_id":"1610690258834293128","user_id":"1568727108304241551","asset_bundle_scene_id":"1592899671817191720","avatar_id":""},{"game_engine":"unity","game_engine_version":20194,"platform":"android","url":"https://cdn-content-ingress.altvr.com/environments/e5/5a/e55ab959f2d9cdbfce831d555ee8f48a-treehousemoonl2020-android","description":null,"aasm_state":"active","created_at":"2020-10-29T03:43:24.761-07:00","updated_at":"2021-01-14T10:27:29.624-08:00","layout":null,"crc":"372902850","client_cache_key":"e55ab959f2d9cdbfce831d555ee8f48a","name":"treehousemoonl2020","stereo_render_mode":null,"asset_bundle_id":"1594180677287281343","user_id":"1568727108304241551","asset_bundle_scene_id":"1592899671817191720","avatar_id":""},{"game_engine":"unity","game_engine_version":20194,"platform":"pc","url":"https://cdn-content-ingress.altvr.com/environments/e5/5a/e55ab959f2d9cdbfce831d555ee8f48a-treehousemoonl2020-pc","description":null,"aasm_state":"active","created_at":"2020-10-29T03:43:24.372-07:00","updated_at":"2021-01-14T10:27:29.562-08:00","layout":null,"crc":"1180220788","client_cache_key":"e55ab959f2d9cdbfce831d555ee8f48a","name":"treehousemoonl2020","stereo_render_mode":null,"asset_bundle_id":"1594180674007335611","user_id":"1568727108304241551","asset_bundle_scene_id":"1592899671817191720","avatar_id":""}]}],"image_large":"https://cdn-content-ingress.altvr.com/uploads/space_template/image/1592899671557144869/Treehouse2.jpg","image_medium":"https://cdn-content-ingress.altvr.com/uploads/space_template/image/1592899671557144869/tile_Treehouse2.jpg","image_small":"https://cdn-content-ingress.altvr.com/uploads/space_template/image/1592899671557144869/tile_Treehouse2.jpg","image_thumbnail":"https://cdn-content-ingress.altvr.com/uploads/space_template/image/1592899671557144869/thumbnail_Treehouse2.jpg","banner_image_large":"https://cdn-content-ingress.altvr.com/defaults/default-1920x576.jpg","banner_image_medium":"https://cdn-content-ingress.altvr.com/defaults/default-1920x576.jpg","banner_image_small":"https://cdn-content-ingress.altvr.com/defaults/default-1920x576.jpg","name":"Tree House Sound"},{"space_template_sid":"p_wellnesshub-2822","selectable_by_non_admins":false,"activity_name":"Wellness_Hub","selectable_for_experiences":false,"description":"","desktop_capacity":null,"mobile_capacity":null,"disabled_for_public_activities":false,"admin":false,"created_at":"2020-06-06T07:05:22.641-07:00","updated_at":"2021-01-14T10:17:13.785-08:00","tutorial":null,"is_featured":null,"space_template_id":"1489189848509055045","recording_id":"","asset_bundle_scenes":[{"aasm_state":"active","name":"Autogenerated for SpaceTemplate 1489189848509055045","created_at":"2020-06-06T07:05:22.687-07:00","updated_at":"2021-01-14T10:17:13.780-08:00","asset_bundle_scene_id":"1489189848769101896","user_id":"1479064576430441076","asset_bundles":[{"game_engine":"unity","game_engine_version":20192,"platform":"android","url":"https://cdn-content-ingress.altvr.com/environments/04/ab/04abfcf3cf9e261f9d141870ffb07315-template-android","description":null,"aasm_state":"active","created_at":"2020-06-19T02:57:52.963-07:00","updated_at":"2021-01-14T10:17:13.770-08:00","layout":null,"crc":"2042304363","client_cache_key":"04abfcf3cf9e261f9d141870ffb07315","name":"template","stereo_render_mode":null,"asset_bundle_id":"1498487364719215521","user_id":"1479064576430441076","asset_bundle_scene_id":"1489189848769101896","avatar_id":""},{"game_engine":"unity","game_engine_version":20192,"platform":"pc","url":"https://cdn-content-ingress.altvr.com/environments/04/ab/04abfcf3cf9e261f9d141870ffb07315-template-pc","description":null,"aasm_state":"active","created_at":"2020-06-19T02:57:52.434-07:00","updated_at":"2021-01-14T10:17:13.712-08:00","layout":null,"crc":"3130517515","client_cache_key":"04abfcf3cf9e261f9d141870ffb07315","name":"template","stereo_render_mode":null,"asset_bundle_id":"1498487360264864665","user_id":"1479064576430441076","asset_bundle_scene_id":"1489189848769101896","avatar_id":""}]}],"image_large":"https://cdn-content-ingress.altvr.com/defaults/default-560x315.jpg","image_medium":"https://cdn-content-ingress.altvr.com/defaults/default-560x315.jpg","image_small":"https://cdn-content-ingress.altvr.com/defaults/default-560x315.jpg","image_thumbnail":"https://cdn-content-ingress.altvr.com/defaults/default-560x315.jpg","banner_image_large":"https://cdn-content-ingress.altvr.com/defaults/default-1920x576.jpg","banner_image_medium":"https://cdn-content-ingress.altvr.com/defaults/default-1920x576.jpg","banner_image_small":"https://cdn-content-ingress.altvr.com/defaults/default-1920x576.jpg","name":"Wellness_Hub"},{"space_template_sid":"belairapartment-2631","selectable_by_non_admins":false,"activity_name":"belairapartment","selectable_for_experiences":false,"description":"","desktop_capacity":null,"mobile_capacity":null,"disabled_for_public_activities":false,"admin":false,"created_at":"2020-06-20T03:03:50.950-07:00","updated_at":"2021-01-14T10:17:19.093-08:00","tutorial":null,"is_featured":null,"space_template_id":"1499215143689519437","recording_id":"","asset_bundle_scenes":[{"aasm_state":"active","name":"Autogenerated for SpaceTemplate 1499215143689519437","created_at":"2020-06-20T03:03:50.997-07:00","updated_at":"2021-01-14T10:17:19.088-08:00","asset_bundle_scene_id":"1499215143949566288","user_id":"1479064576430441076","asset_bundles":[{"game_engine":"unity","game_engine_version":20192,"platform":"android","url":"https://cdn-content-ingress.altvr.com/environments/f4/af/f4af06f10af78347a0b18b7e3a229fba-template-android","description":null,"aasm_state":"active","created_at":"2020-06-20T03:18:39.892-07:00","updated_at":"2021-01-14T10:17:19.077-08:00","layout":null,"crc":"1664937101","client_cache_key":"f4af06f10af78347a0b18b7e3a229fba","name":"template","stereo_render_mode":null,"asset_bundle_id":"1499222600482554103","user_id":"1479064576430441076","asset_bundle_scene_id":"1499215143949566288","avatar_id":""},{"game_engine":"unity","game_engine_version":20192,"platform":"pc","url":"https://cdn-content-ingress.altvr.com/environments/f4/af/f4af06f10af78347a0b18b7e3a229fba-template-pc","description":null,"aasm_state":"active","created_at":"2020-06-20T03:18:39.495-07:00","updated_at":"2021-01-14T10:17:18.997-08:00","layout":null,"crc":"3779054105","client_cache_key":"f4af06f10af78347a0b18b7e3a229fba","name":"template","stereo_render_mode":null,"asset_bundle_id":"1499222597202608373","user_id":"1479064576430441076","asset_bundle_scene_id":"1499215143949566288","avatar_id":""}]}],"image_large":"https://cdn-content-ingress.altvr.com/defaults/default-560x315.jpg","image_medium":"https://cdn-content-ingress.altvr.com/defaults/default-560x315.jpg","image_small":"https://cdn-content-ingress.altvr.com/defaults/default-560x315.jpg","image_thumbnail":"https://cdn-content-ingress.altvr.com/defaults/default-560x315.jpg","banner_image_large":"https://cdn-content-ingress.altvr.com/defaults/default-1920x576.jpg","banner_image_medium":"https://cdn-content-ingress.altvr.com/defaults/default-1920x576.jpg","banner_image_small":"https://cdn-content-ingress.altvr.com/defaults/default-1920x576.jpg","name":"belairapartment"},{"space_template_sid":"comohouse-2515","selectable_by_non_admins":false,"activity_name":"comohouse","selectable_for_experiences":false,"description":"","desktop_capacity":null,"mobile_capacity":null,"disabled_for_public_activities":false,"admin":false,"created_at":"2020-06-20T23:27:33.301-07:00","updated_at":"2021-01-14T10:18:25.184-08:00","tutorial":null,"is_featured":null,"space_template_id":"1499831054909833382","recording_id":"","asset_bundle_scenes":[{"aasm_state":"active","name":"Autogenerated for SpaceTemplate 1499831054909833382","created_at":"2020-06-20T23:27:33.343-07:00","updated_at":"2021-01-14T10:18:25.177-08:00","asset_bundle_scene_id":"1499831055169880233","user_id":"1479064576430441076","asset_bundles":[{"game_engine":"unity","game_engine_version":20192,"platform":"android","url":"https://cdn-content-ingress.altvr.com/environments/7c/de/7cde6ec4b1913bec93c65ec29022f591-template-android","description":null,"aasm_state":"active","created_at":"2020-07-11T04:30:54.027-07:00","updated_at":"2021-01-14T10:18:25.165-08:00","layout":null,"crc":"1133293373","client_cache_key":"7cde6ec4b1913bec93c65ec29022f591","name":"template","stereo_render_mode":null,"asset_bundle_id":"1514479248314729048","user_id":"1479064576430441076","asset_bundle_scene_id":"1499831055169880233","avatar_id":""},{"game_engine":"unity","game_engine_version":20192,"platform":"pc","url":"https://cdn-content-ingress.altvr.com/environments/7c/de/7cde6ec4b1913bec93c65ec29022f591-template-pc","description":null,"aasm_state":"active","created_at":"2020-07-11T04:30:53.573-07:00","updated_at":"2021-01-14T10:18:25.093-08:00","layout":null,"crc":"1762258919","client_cache_key":"7cde6ec4b1913bec93c65ec29022f591","name":"template","stereo_render_mode":null,"asset_bundle_id":"1514479244514689621","user_id":"1479064576430441076","asset_bundle_scene_id":"1499831055169880233","avatar_id":""}]}],"image_large":"https://cdn-content-ingress.altvr.com/defaults/default-560x315.jpg","image_medium":"https://cdn-content-ingress.altvr.com/defaults/default-560x315.jpg","image_small":"https://cdn-content-ingress.altvr.com/defaults/default-560x315.jpg","image_thumbnail":"https://cdn-content-ingress.altvr.com/defaults/default-560x315.jpg","banner_image_large":"https://cdn-content-ingress.altvr.com/defaults/default-1920x576.jpg","banner_image_medium":"https://cdn-content-ingress.altvr.com/defaults/default-1920x576.jpg","banner_image_small":"https://cdn-content-ingress.altvr.com/defaults/default-1920x576.jpg","name":"comohouse"},{"space_template_sid":"fashion_mansion-3927","selectable_by_non_admins":false,"activity_name":"fashion_mansion","selectable_for_experiences":false,"description":"","desktop_capacity":null,"mobile_capacity":null,"disabled_for_public_activities":false,"admin":false,"created_at":"2020-11-06T21:26:24.395-08:00","updated_at":"2021-01-14T10:28:15.385-08:00","tutorial":null,"is_featured":null,"space_template_id":"1600544104591130760","recording_id":"","asset_bundle_scenes":[{"aasm_state":"active","name":"Autogenerated for SpaceTemplate 1600544104591130760","created_at":"2020-11-06T21:26:24.440-08:00","updated_at":"2021-01-14T10:28:15.379-08:00","asset_bundle_scene_id":"1600544104851177611","user_id":"1479064576430441076","asset_bundles":[{"game_engine":"unity","game_engine_version":20194,"platform":"android","url":"https://cdn-content-ingress.altvr.com/environments/fb/d9/fbd98622daf148573fa9210948ddbff5-template-android","description":null,"aasm_state":"active","created_at":"2020-11-06T22:04:03.828-08:00","updated_at":"2021-01-14T10:28:15.369-08:00","layout":null,"crc":"2339528176","client_cache_key":"fbd98622daf148573fa9210948ddbff5","name":"template","stereo_render_mode":null,"asset_bundle_id":"1600563058055315510","user_id":"1479064576430441076","asset_bundle_scene_id":"1600544104851177611","avatar_id":""},{"game_engine":"unity","game_engine_version":20194,"platform":"pc","url":"https://cdn-content-ingress.altvr.com/environments/fb/d9/fbd98622daf148573fa9210948ddbff5-template-pc","description":null,"aasm_state":"active","created_at":"2020-11-06T22:04:03.296-08:00","updated_at":"2021-01-14T10:28:15.304-08:00","layout":null,"crc":"3335234254","client_cache_key":"fbd98622daf148573fa9210948ddbff5","name":"template","stereo_render_mode":null,"asset_bundle_id":"1600563053600964658","user_id":"1479064576430441076","asset_bundle_scene_id":"1600544104851177611","avatar_id":""}]}],"image_large":"https://cdn-content-ingress.altvr.com/defaults/default-560x315.jpg","image_medium":"https://cdn-content-ingress.altvr.com/defaults/default-560x315.jpg","image_small":"https://cdn-content-ingress.altvr.com/defaults/default-560x315.jpg","image_thumbnail":"https://cdn-content-ingress.altvr.com/defaults/default-560x315.jpg","banner_image_large":"https://cdn-content-ingress.altvr.com/defaults/default-1920x576.jpg","banner_image_medium":"https://cdn-content-ingress.altvr.com/defaults/default-1920x576.jpg","banner_image_small":"https://cdn-content-ingress.altvr.com/defaults/default-1920x576.jpg","name":"fashion_mansion"},{"space_template_sid":"lagarage-night-3946","selectable_by_non_admins":false,"activity_name":"lagarage-night","selectable_for_experiences":false,"description":"","desktop_capacity":null,"mobile_capacity":null,"disabled_for_public_activities":false,"admin":false,"created_at":"2020-05-25T06:46:13.277-07:00","updated_at":"2021-01-14T10:17:02.476-08:00","tutorial":null,"is_featured":null,"space_template_id":"1480482898095113106","recording_id":"","asset_bundle_scenes":[{"aasm_state":"active","name":"Autogenerated for SpaceTemplate 1480482898095113106","created_at":"2020-05-25T06:46:13.317-07:00","updated_at":"2021-01-14T10:17:02.471-08:00","asset_bundle_scene_id":"1480482898489377686","user_id":"1479064576430441076","asset_bundles":[{"game_engine":"unity","game_engine_version":20192,"platform":"android","url":"https://cdn-content-ingress.altvr.com/environments/ab/cf/abcf4b2ac955228daed3e62eb4128500-template-android","description":null,"aasm_state":"active","created_at":"2020-06-17T05:08:42.934-07:00","updated_at":"2021-01-14T10:17:02.448-08:00","layout":null,"crc":"3372549895","client_cache_key":"abcf4b2ac955228daed3e62eb4128500","name":"template","stereo_render_mode":null,"asset_bundle_id":"1497103663703785961","user_id":"1479064576430441076","asset_bundle_scene_id":"1480482898489377686","avatar_id":""},{"game_engine":"unity","game_engine_version":20192,"platform":"pc","url":"https://cdn-content-ingress.altvr.com/environments/ab/cf/abcf4b2ac955228daed3e62eb4128500-template-pc","description":null,"aasm_state":"active","created_at":"2020-06-17T05:08:42.496-07:00","updated_at":"2021-01-14T10:17:02.381-08:00","layout":null,"crc":"2612722574","client_cache_key":"abcf4b2ac955228daed3e62eb4128500","name":"template","stereo_render_mode":null,"asset_bundle_id":"1497103660037964260","user_id":"1479064576430441076","asset_bundle_scene_id":"1480482898489377686","avatar_id":""}]}],"image_large":"https://cdn-content-ingress.altvr.com/defaults/default-560x315.jpg","image_medium":"https://cdn-content-ingress.altvr.com/defaults/default-560x315.jpg","image_small":"https://cdn-content-ingress.altvr.com/defaults/default-560x315.jpg","image_thumbnail":"https://cdn-content-ingress.altvr.com/defaults/default-560x315.jpg","banner_image_large":"https://cdn-content-ingress.altvr.com/defaults/default-1920x576.jpg","banner_image_medium":"https://cdn-content-ingress.altvr.com/defaults/default-1920x576.jpg","banner_image_small":"https://cdn-content-ingress.altvr.com/defaults/default-1920x576.jpg","name":"lagarage-night"},{"space_template_sid":"loftapartment-1543","selectable_by_non_admins":false,"activity_name":"loftapartment","selectable_for_experiences":false,"description":"","desktop_capacity":null,"mobile_capacity":null,"disabled_for_public_activities":false,"admin":false,"created_at":"2020-06-20T23:26:39.387-07:00","updated_at":"2021-01-14T10:17:22.045-08:00","tutorial":null,"is_featured":null,"space_template_id":"1499830602688364649","recording_id":"","asset_bundle_scenes":[{"aasm_state":"active","name":"Autogenerated for SpaceTemplate 1499830602688364649","created_at":"2020-06-20T23:26:39.427-07:00","updated_at":"2021-01-14T10:17:22.039-08:00","asset_bundle_scene_id":"1499830602956800108","user_id":"1479064576430441076","asset_bundles":[{"game_engine":"unity","game_engine_version":20192,"platform":"android","url":"https://cdn-content-ingress.altvr.com/environments/21/28/21282c565cfcb8326be5905bac2ab638-template-android","description":null,"aasm_state":"active","created_at":"2020-06-21T00:38:50.514-07:00","updated_at":"2021-01-14T10:17:22.028-08:00","layout":null,"crc":"2226429782","client_cache_key":"21282c565cfcb8326be5905bac2ab638","name":"template","stereo_render_mode":null,"asset_bundle_id":"1499866934806577243","user_id":"1479064576430441076","asset_bundle_scene_id":"1499830602956800108","avatar_id":""},{"game_engine":"unity","game_engine_version":20192,"platform":"pc","url":"https://cdn-content-ingress.altvr.com/environments/21/28/21282c565cfcb8326be5905bac2ab638-template-pc","description":null,"aasm_state":"active","created_at":"2020-06-21T00:38:50.286-07:00","updated_at":"2021-01-14T10:17:21.953-08:00","layout":null,"crc":"4279259108","client_cache_key":"21282c565cfcb8326be5905bac2ab638","name":"template","stereo_render_mode":null,"asset_bundle_id":"1499866932835254361","user_id":"1479064576430441076","asset_bundle_scene_id":"1499830602956800108","avatar_id":""}]}],"image_large":"https://cdn-content-ingress.altvr.com/defaults/default-560x315.jpg","image_medium":"https://cdn-content-ingress.altvr.com/defaults/default-560x315.jpg","image_small":"https://cdn-content-ingress.altvr.com/defaults/default-560x315.jpg","image_thumbnail":"https://cdn-content-ingress.altvr.com/defaults/default-560x315.jpg","banner_image_large":"https://cdn-content-ingress.altvr.com/defaults/default-1920x576.jpg","banner_image_medium":"https://cdn-content-ingress.altvr.com/defaults/default-1920x576.jpg","banner_image_small":"https://cdn-content-ingress.altvr.com/defaults/default-1920x576.jpg","name":"loftapartment"},{"space_template_sid":"orlandohouse-818","selectable_by_non_admins":false,"activity_name":"orlandohouse","selectable_for_experiences":false,"description":"","desktop_capacity":null,"mobile_capacity":null,"disabled_for_public_activities":false,"admin":false,"created_at":"2020-06-20T20:58:25.196-07:00","updated_at":"2021-01-14T10:18:24.713-08:00","tutorial":null,"is_featured":null,"space_template_id":"1499755992840143032","recording_id":"","asset_bundle_scenes":[{"aasm_state":"active","name":"Autogenerated for SpaceTemplate 1499755992840143032","created_at":"2020-06-20T20:58:25.268-07:00","updated_at":"2021-01-14T10:18:24.709-08:00","asset_bundle_scene_id":"1499755993368625339","user_id":"1479064576430441076","asset_bundles":[{"game_engine":"unity","game_engine_version":20192,"platform":"android","url":"https://cdn-content-ingress.altvr.com/environments/8d/39/8d39b6f997d9478a5a7af9b23ac319c3-template-android","description":null,"aasm_state":"active","created_at":"2020-07-11T00:25:23.612-07:00","updated_at":"2021-01-14T10:18:24.692-08:00","layout":null,"crc":"3907871895","client_cache_key":"8d39b6f997d9478a5a7af9b23ac319c3","name":"template","stereo_render_mode":null,"asset_bundle_id":"1514355680536953454","user_id":"1479064576430441076","asset_bundle_scene_id":"1499755993368625339","avatar_id":""},{"game_engine":"unity","game_engine_version":20192,"platform":"pc","url":"https://cdn-content-ingress.altvr.com/environments/8d/39/8d39b6f997d9478a5a7af9b23ac319c3-template-pc","description":null,"aasm_state":"active","created_at":"2020-07-11T00:25:23.139-07:00","updated_at":"2021-01-14T10:18:24.624-08:00","layout":null,"crc":"3857004999","client_cache_key":"8d39b6f997d9478a5a7af9b23ac319c3","name":"template","stereo_render_mode":null,"asset_bundle_id":"1514355676611084906","user_id":"1479064576430441076","asset_bundle_scene_id":"1499755993368625339","avatar_id":""}]}],"image_large":"https://cdn-content-ingress.altvr.com/defaults/default-560x315.jpg","image_medium":"https://cdn-content-ingress.altvr.com/defaults/default-560x315.jpg","image_small":"https://cdn-content-ingress.altvr.com/defaults/default-560x315.jpg","image_thumbnail":"https://cdn-content-ingress.altvr.com/defaults/default-560x315.jpg","banner_image_large":"https://cdn-content-ingress.altvr.com/defaults/default-1920x576.jpg","banner_image_medium":"https://cdn-content-ingress.altvr.com/defaults/default-1920x576.jpg","banner_image_small":"https://cdn-content-ingress.altvr.com/defaults/default-1920x576.jpg","name":"orlandohouse"}],"pagination":{"page":2,"pages":2,"count":33}}